Constant Pool:
0: "λ:"
1: 1
2: "x"
3: slot #2
4: null
5: "~\n"
6: "p"
7: method #6 args:1 locals:0 0000-0002
8: class #7
9: "new"
10: method #9 args:0 locals:0 0003-0005
11: 2
12: 3
13: 4
14: 5
15: method #6 args:1 locals:0 0006-0008
16: class #15
17: 6
18: method #0 args:0 locals:3 0009-0038
Entry: #18
Globals:
0: #3
1: #10
Code:
0: get global #2
1: printf #5 1
2: return
3: lit #4
4: object #8
5: return
6: get global #2
7: printf #5 1
8: return
9: lit #1
10: set global #2
11: drop
12: lit #11
13: set global #2
14: drop
15: lit #12
16: set local ::0
17: drop
18: call #9 0
19: set local ::1
20: drop
21: lit #13
22: set local ::0
23: drop
24: get local ::1
25: call slot #6 1
26: drop
27: lit #14
28: set local ::0
29: drop
30: lit #4
31: object #16
32: set local ::2
33: drop
34: lit #17
35: set local ::0
36: drop
37: get local ::2
38: call slot #6 1

// > 2
// > 2
